[
  "00_usersTable.js",
  "02_citiesTable.js",
  "03_operatorsTable.js",
  "04_busesTable.js",
  "06_busStopTable.js",
  "11_tripStopsTable.js",
  "12_operators.js",
  "13_cities.js",
  "15_buses.js",
  "16_busStops.js",
  "07_routesTable.js",
  "01_amenitiesTable.js",
  "05_bus_amenitiesTable.js",
  "14_amenities.js",
  "17_bus_amenities.js",
  "18_routes.js",
  "19_seatsTable.js",
  "20_seats.js",
  "08_tripsTable.js",
  "09_passengersTable.js",
  "10_ticketsTable.js"
]